<svg width="7" height="10" viewBox="0 0 7 10" fill="none" xmlns="http://www.w3.org/2000/svg">
<path fill-rule="evenodd" clip-rule="evenodd" d="M1.50025 -4.76837e-06C1.24425 -4.76837e-06 0.98825 0.0979958 0.79325 0.292995C0.40225 0.683995 0.40225 1.316 0.79325 1.707L4.09825 5.012L0.91825 8.305C0.53525 8.703 0.54625 9.336 0.94325 9.719C1.34125 10.102 1.97425 10.091 2.35725 9.695L6.21925 5.695C6.59825 5.302 6.59325 4.679 6.20725 4.29299L2.20725 0.292995C2.01225 0.0979958 1.75625 -4.76837e-06 1.50025 -4.76837e-06Z" fill="#2E3A59"/>
</svg>
