<svg width="24" height="18" viewBox="0 0 24 18" fill="none" xmlns="http://www.w3.org/2000/svg">
<path d="M4.98869 0.750661C5.15255 0.914724 5.24459 1.13712 5.24459 1.36899C5.24459 1.60087 5.15255 1.82326 4.98869 1.98733C4.06781 2.90818 3.33733 4.0014 2.83895 5.20456C2.34057 6.40773 2.08406 7.69728 2.08406 8.99958C2.08406 10.3019 2.34057 11.5914 2.83895 12.7946C3.33733 13.9978 4.06781 15.091 4.98869 16.0118C5.148 16.1769 5.2361 16.398 5.234 16.6274C5.2319 16.8568 5.13977 17.0763 4.97746 17.2384C4.81515 17.4006 4.59565 17.4925 4.36622 17.4944C4.1368 17.4963 3.91581 17.408 3.75086 17.2485C-0.804974 12.6927 -0.804974 5.30649 3.75086 0.750661C3.91492 0.586802 4.13732 0.494765 4.36919 0.494765C4.60107 0.494765 4.82346 0.586802 4.98753 0.750661H4.98869ZM20.2499 0.750661C24.8057 5.30649 24.8057 12.6927 20.2499 17.2497C20.084 17.4042 19.8646 17.4884 19.6379 17.4844C19.4112 17.4804 19.1949 17.3885 19.0346 17.2282C18.8743 17.0679 18.7825 16.8516 18.7785 16.6249C18.7745 16.3983 18.8586 16.1789 19.0132 16.013C19.9342 15.0921 20.6649 13.9988 21.1634 12.7956C21.6618 11.5923 21.9184 10.3026 21.9184 9.00016C21.9184 7.69772 21.6618 6.40804 21.1634 5.20477C20.6649 4.00149 19.9342 2.9082 19.0132 1.98733C18.9272 1.90722 18.8583 1.81062 18.8104 1.70329C18.7626 1.59596 18.7369 1.48009 18.7348 1.3626C18.7328 1.24512 18.7544 1.12842 18.7984 1.01946C18.8424 0.910511 18.9079 0.811538 18.991 0.72845C19.0741 0.645361 19.173 0.579859 19.282 0.535851C19.3909 0.491844 19.5076 0.470231 19.6251 0.472304C19.7426 0.474377 19.8585 0.500093 19.9658 0.547917C20.0732 0.595741 20.1698 0.664693 20.2499 0.750661V0.750661ZM8.28803 4.04999C8.45188 4.21406 8.54392 4.43645 8.54392 4.66833C8.54392 4.9002 8.45188 5.1226 8.28803 5.28666C7.80034 5.77419 7.41347 6.35302 7.14953 6.99009C6.88558 7.62717 6.74973 8.30999 6.74973 8.99958C6.74973 9.68916 6.88558 10.372 7.14953 11.0091C7.41347 11.6461 7.80034 12.225 8.28803 12.7125C8.44259 12.8784 8.52673 13.0978 8.52273 13.3244C8.51873 13.5511 8.4269 13.7674 8.26658 13.9277C8.10627 14.088 7.88999 14.1799 7.6633 14.1839C7.43662 14.1879 7.21723 14.1037 7.05136 13.9492C5.73871 12.6364 5.00127 10.856 5.00127 8.99958C5.00127 7.14314 5.73871 5.36274 7.05136 4.04999C7.21542 3.88614 7.43782 3.7941 7.66969 3.7941C7.90157 3.7941 8.12396 3.88614 8.28803 4.04999ZM16.9505 4.04999C18.2632 5.36274 19.0006 7.14314 19.0006 8.99958C19.0006 10.856 18.2632 12.6364 16.9505 13.9492C16.8698 14.0328 16.7733 14.0995 16.6666 14.1454C16.5599 14.1913 16.4451 14.2155 16.3289 14.2165C16.2127 14.2176 16.0975 14.1955 15.9899 14.1516C15.8824 14.1076 15.7846 14.0427 15.7024 13.9606C15.6202 13.8785 15.5552 13.7808 15.5112 13.6733C15.4671 13.5658 15.4449 13.4506 15.4459 13.3344C15.4468 13.2182 15.4709 13.1034 15.5167 12.9966C15.5625 12.8898 15.6292 12.7933 15.7127 12.7125C16.2002 12.225 16.5869 11.6462 16.8508 11.0093C17.1146 10.3723 17.2504 9.68961 17.2504 9.00016C17.2504 8.31072 17.1146 7.62802 16.8508 6.99106C16.5869 6.3541 16.2002 5.77534 15.7127 5.28783C15.5581 5.12196 15.474 4.90257 15.478 4.67588C15.482 4.4492 15.5738 4.23292 15.7341 4.0726C15.8944 3.91229 16.1107 3.82046 16.3374 3.81646C16.5641 3.81246 16.7835 3.8966 16.9494 4.05116L16.9505 4.04999ZM12.0004 7.25016C12.4645 7.25016 12.9096 7.43454 13.2378 7.76272C13.566 8.09091 13.7504 8.53603 13.7504 9.00016C13.7504 9.46429 13.566 9.90941 13.2378 10.2376C12.9096 10.5658 12.4645 10.7502 12.0004 10.7502C11.5362 10.7502 11.0911 10.5658 10.7629 10.2376C10.4347 9.90941 10.2504 9.46429 10.2504 9.00016C10.2504 8.53603 10.4347 8.09091 10.7629 7.76272C11.0911 7.43454 11.5362 7.25016 12.0004 7.25016Z" fill="#5459EA"/>
</svg>
